Analyzing NYC Climate Projections: Extreme Events and Sea Level Rise
…
Number of heatwaves per year

Cooling and heating degree days

Projected sea level rise

Researchers, city planners, and policymakers can use this information
to understand future climate risks, prepare for extreme weather events,
and plan adaptation strategies.

Retrieve a Sample of Data

sample_data <- nyc_pull_dataset("38ps-fnsg", limit = 10)
nyc_list_datasets()
#> # A tibble: 2,389 × 26
#>    key             uid   name  datasetinformation_a…¹ description type  category
#>    <chr>           <chr> <chr> <chr>                  <chr>       <chr> <chr>   
#>  1 nyc_independen… 6ggx… NYC … NYC Independent Budge… "New York … data… City Go…
#>  2 x2016_2017_gui… xr5s… 2016… Department of Educati… "New York … data… Educati…
#>  3 competitive_se… d6di… Comp… Mayor's Office of Con… "Citywide … data… Business
#>  4 x2015_2016_stu… hti8… 2015… Department of Educati… "Student D… data… Educati…
#>  5 x2019_20_demog… ycfm… 2019… Department of Educati… "Student a… data… Educati…
#>  6 x2012_2015_his… pffu… 2012… Department of Educati… "Daily lis… data… Educati…
#>  7 x2014_2015_par… hdpu… 2014… Department of Educati… "2015 NYC … data… Educati…
#>  8 x2019_20_schoo… jtpv… 2019… Department of Educati… "The Schoo… data… Educati…
#>  9 x2017_2018_phy… qiyv… 2017… Department of Educati… "Local Law… data… Educati…
#> 10 x2010_public_u… k2r4… 2010… Department of City Pl… "The 2010 … data… City Go…
#> # ℹ 2,379 more rows
#> # ℹ abbreviated name: ¹​datasetinformation_agency
#> # ℹ 19 more variables: legislativecompliance_datasetfromtheopendataplan <chr>,
#> #   url <chr>, update_datemadepublic <chr>, update_updatefrequency <chr>,
#> #   last_data_updated_date <chr>,
#> #   legislativecompliance_candatasetfeasiblybeautomated <chr>,
#> #   update_automation <chr>, legislativecompliance_hasdatadictionary <chr>, …
…
